HW3
…
##   Province_State = col_character(),
##   Country_Region = col_character(),
##   Last_Update = col_datetime(format = ""),
##   Lat = col_double(),
##   Long_ = col_double(),
##   Confirmed = col_double(),
##   Deaths = col_double(),
##   Recovered = col_double(),
##   Active = col_double(),
##   Combined_Key = col_character(),
##   Incidence_Rate = col_double(),
##   `Case-Fatality_Ratio` = col_double()
## )

## # A tibble: 3,271 x 14
##     FIPS Admin2   Province_State Country_Region Last_Update           Lat Long_
##    <dbl> <chr>    <chr>          <chr>          <dttm>              <dbl> <dbl>
##  1  1001 Autauga  Alabama        US             2020-10-19 04:24:16  32.5 -86.6
##  2  1003 Baldwin  Alabama        US             2020-10-19 04:24:16  30.7 -87.7
##  3  1005 Barbour  Alabama        US             2020-10-19 04:24:16  31.9 -85.4
##  4  1007 Bibb     Alabama        US             2020-10-19 04:24:16  33.0 -87.1
##  5  1009 Blount   Alabama        US             2020-10-19 04:24:16  34.0 -86.6
##  6  1011 Bullock  Alabama        US             2020-10-19 04:24:16  32.1 -85.7
##  7  1013 Butler   Alabama        US             2020-10-19 04:24:16  31.8 -86.7
##  8  1015 Calhoun  Alabama        US             2020-10-19 04:24:16  33.8 -85.8
##  9  1017 Chambers Alabama        US             2020-10-19 04:24:16  32.9 -85.4
## 10  1019 Cherokee Alabama        US             2020-10-19 04:24:16  34.2 -85.6
##    Confirmed Deaths Recovered Active Combined_Key          Incidence_Rate
##        <dbl>  <dbl>     <dbl>  <dbl> <chr>                          <dbl>
##  1      1989     28         0   1961 Autauga, Alabama, US           3560.
##  2      6369     67         0   6302 Baldwin, Alabama, US           2853.
##  3       981      9         0    972 Barbour, Alabama, US           3974.
##  4       785     13         0    772 Bibb, Alabama, US              3505.
##  5      1827     23         0   1804 Blount, Alabama, US            3159.
##  6       634     17         0    617 Bullock, Alabama, US           6277.
##  7       996     40         0    956 Butler, Alabama, US            5121.
##  8      4084     59         0   4025 Calhoun, Alabama, US           3595.
##  9      1266     43         0   1223 Chambers, Alabama, US          3807.
## 10       714     14         0    700 Cherokee, Alabama, US          2726.
##    `Case-Fatality_Ratio`
##                    <dbl>
##  1                 1.41 
##  2                 1.05 
##  3                 0.917
##  4                 1.66 
##  5                 1.26 
##  6                 2.68 
##  7                 4.02 
##  8                 1.44 
##  9                 3.40 
## 10                 1.96 
## #  with 3,261 more rows
…
county_count <- county_count %>%
  filter(!(province_state %in% c("Diamond Princess", "Grand Princess", 
                                 "Recovered", "Guam", "Northern Mariana Islands", 
                                 "Puerto Rico", "Virgin Islands"))) %>%
  print(width = Inf)

## # A tibble: 3,185 x 14
##     fips admin2   province_state country_region last_update           lat long_
##    <dbl> <chr>    <chr>          <chr>          <dttm>              <dbl> <dbl>
##  1  1001 Autauga  Alabama        US             2020-10-19 04:24:16  32.5 -86.6
##  2  1003 Baldwin  Alabama        US             2020-10-19 04:24:16  30.7 -87.7
##  3  1005 Barbour  Alabama        US             2020-10-19 04:24:16  31.9 -85.4
##  4  1007 Bibb     Alabama        US             2020-10-19 04:24:16  33.0 -87.1
##  5  1009 Blount   Alabama        US             2020-10-19 04:24:16  34.0 -86.6
##  6  1011 Bullock  Alabama        US             2020-10-19 04:24:16  32.1 -85.7
##  7  1013 Butler   Alabama        US             2020-10-19 04:24:16  31.8 -86.7
##  8  1015 Calhoun  Alabama        US             2020-10-19 04:24:16  33.8 -85.8
##  9  1017 Chambers Alabama        US             2020-10-19 04:24:16  32.9 -85.4
## 10  1019 Cherokee Alabama        US             2020-10-19 04:24:16  34.2 -85.6
##    confirmed deaths recovered active combined_key          incidence_rate
##        <dbl>  <dbl>     <dbl>  <dbl> <chr>                          <dbl>
##  1      1989     28         0   1961 Autauga, Alabama, US           3560.
##  2      6369     67         0   6302 Baldwin, Alabama, US           2853.
##  3       981      9         0    972 Barbour, Alabama, US           3974.
##  4       785     13         0    772 Bibb, Alabama, US              3505.
##  5      1827     23         0   1804 Blount, Alabama, US            3159.
##  6       634     17         0    617 Bullock, Alabama, US           6277.
##  7       996     40         0    956 Butler, Alabama, US            5121.
##  8      4084     59         0   4025 Calhoun, Alabama, US           3595.
##  9      1266     43         0   1223 Chambers, Alabama, US          3807.
## 10       714     14         0    700 Cherokee, Alabama, US          2726.
##    `case-fatality_ratio`
##                    <dbl>
##  1                 1.41 
##  2                 1.05 
##  3                 0.917
##  4                 1.66 
##  5                 1.26 
##  6                 2.68 
##  7                 4.02 
##  8                 1.44 
##  9                 3.40 
## 10                 1.96 
## #  with 3,175 more rows
…
